{
    "versions": [
        {
            "id": "1.2",
            "type": "snapshot",
            "url": "https://zkitefly.github.io/unlisted-versions-of-minecraft/files/1_2/1_2.json",
            "time": "2012-02-29T00:00:00+00:00",
            "releaseTime": "2012-02-29T00:00:00+00:00"
        },
        {
            "id": "11w47a",
            "type": "snapshot",
            "url": "https://zkitefly.github.io/unlisted-versions-of-minecraft/files/11w47a/11w47a.json",
            "time": "2011-11-24T00:00:00+00:00",
            "releaseTime": "2011-11-24T00:00:00+00:00"
        },
        {
            "id": "11w48a",
            "type": "snapshot",
            "url": "https://zkitefly.github.io/unlisted-versions-of-minecraft/files/11w48a/11w48a.json",
            "time": "2011-12-01T00:00:00+00:00",
            "releaseTime": "2011-12-01T00:00:00+00:00"
        },
        {
            "id": "11w49a",
            "type": "snapshot",
            "url": "https://zkitefly.github.io/unlisted-versions-of-minecraft/files/11w49a/11w49a.json",
            "time": "2011-12-08T00:00:00+00:00",
            "releaseTime": "2011-12-08T00:00:00+00:00"
        },
        {
            "id": "11w50a",
            "type": "snapshot",
            "url": "https://zkitefly.github.io/unlisted-versions-of-minecraft/files/11w50a/11w50a.json",
            "time": "2011-12-15T00:00:00+00:00",
            "releaseTime": "2011-12-15T00:00:00+00:00"
        },
        {
            "id": "12w01a",
            "type": "snapshot",
            "url": "https://zkitefly.github.io/unlisted-versions-of-minecraft/files/12w01a/12w01a.json",
            "time": "2012-01-05T00:00:00+00:00",
            "releaseTime": "2012-01-05T00:00:00+00:00"
        },
        {
            "id": "12w03a",
            "type": "snapshot",
            "url": "https://zkitefly.github.io/unlisted-versions-of-minecraft/files/12w03a/12w03a.json",
            "time": "2012-01-19T00:00:00+00:00",
            "releaseTime": "2012-01-19T00:00:00+00:00"
        },
        {
            "id": "12w04a",
            "type": "snapshot",
            "url": "https://zkitefly.github.io/unlisted-versions-of-minecraft/files/12w04a/12w04a.json",
            "time": "2012-01-26T00:00:00+00:00",
            "releaseTime": "2012-01-26T00:00:00+00:00"
        },
        {
            "id": "12w05a",
            "type": "snapshot",
            "url": "https://zkitefly.github.io/unlisted-versions-of-minecraft/files/12w05a/12w05a.json",
            "time": "2012-02-02T00:00:00+00:00",
            "releaseTime": "2012-02-02T00:00:00+00:00"
        },
        {
            "id": "12w05b",
            "type": "snapshot",
            "url": "https://zkitefly.github.io/unlisted-versions-of-minecraft/files/12w05b/12w05b.json",
            "time": "2012-02-03T00:00:00+00:00",
            "releaseTime": "2012-02-03T00:00:00+00:00"
        },
        {
            "id": "12w06a",
            "type": "snapshot",
            "url": "https://zkitefly.github.io/unlisted-versions-of-minecraft/files/12w06a/12w06a.json",
            "time": "2012-02-09T00:00:00+00:00",
            "releaseTime": "2012-02-09T00:00:00+00:00"
        },
        {
            "id": "12w07a",
            "type": "snapshot",
            "url": "https://zkitefly.github.io/unlisted-versions-of-minecraft/files/12w07a/12w07a.json",
            "time": "2012-02-15T00:00:00+00:00",
            "releaseTime": "2012-02-15T00:00:00+00:00"
        },
        {
            "id": "12w07b",
            "type": "snapshot",
            "url": "https://zkitefly.github.io/unlisted-versions-of-minecraft/files/12w07b/12w07b.json",
            "time": "2012-02-15T00:00:00+00:00",
            "releaseTime": "2012-02-15T00:00:00+00:00"
        },
        {
            "id": "12w08a",
            "type": "snapshot",
            "url": "https://zkitefly.github.io/unlisted-versions-of-minecraft/files/12w08a/12w08a.json",
            "time": "2012-02-23T00:00:00+00:00",
            "releaseTime": "2012-02-23T00:00:00+00:00"
        },
        {
            "id": "12w16a",
            "type": "snapshot",
            "url": "https://zkitefly.github.io/unlisted-versions-of-minecraft/files/12w16a/12w16a.json",
            "time": "2012-04-19T00:00:00+00:00",
            "releaseTime": "2012-04-19T00:00:00+00:00"
        },
        {
            "id": "12w17a",
            "type": "snapshot",
            "url": "https://zkitefly.github.io/unlisted-versions-of-minecraft/files/12w17a/12w17a.json",
            "time": "2012-04-26T00:00:00+00:00",
            "releaseTime": "2012-04-26T00:00:00+00:00"
        },
        {
            "id": "12w18a",
            "type": "snapshot",
            "url": "https://zkitefly.github.io/unlisted-versions-of-minecraft/files/12w18a/12w18a.json",
            "time": "2012-05-03T00:00:00+00:00",
            "releaseTime": "2012-05-03T00:00:00+00:00"
        },
        {
            "id": "12w19a",
            "type": "snapshot",
            "url": "https://zkitefly.github.io/unlisted-versions-of-minecraft/files/12w19a/12w19a.json",
            "time": "2012-05-10T00:00:00+00:00",
            "releaseTime": "2012-05-10T00:00:00+00:00"
        },
        {
            "id": "12w21a",
            "type": "snapshot",
            "url": "https://zkitefly.github.io/unlisted-versions-of-minecraft/files/12w21a/12w21a.json",
            "time": "2012-05-24T00:00:00+00:00",
            "releaseTime": "2012-05-24T00:00:00+00:00"
        },
        {
            "id": "12w21b",
            "type": "snapshot",
            "url": "https://zkitefly.github.io/unlisted-versions-of-minecraft/files/12w21b/12w21b.json",
            "time": "2012-05-25T00:00:00+00:00",
            "releaseTime": "2012-05-25T00:00:00+00:00"
        },
        {
            "id": "12w22a",
            "type": "snapshot",
            "url": "https://zkitefly.github.io/unlisted-versions-of-minecraft/files/12w22a/12w22a.json",
            "time": "2012-05-31T00:00:00+00:00",
            "releaseTime": "2012-05-31T00:00:00+00:00"
        },
        {
            "id": "12w23a",
            "type": "snapshot",
            "url": "https://zkitefly.github.io/unlisted-versions-of-minecraft/files/12w23a/12w23a.json",
            "time": "2012-06-07T00:00:00+00:00",
            "releaseTime": "2012-06-07T00:00:00+00:00"
        },
        {
            "id": "12w23b",
            "type": "snapshot",
            "url": "https://zkitefly.github.io/unlisted-versions-of-minecraft/files/12w23b/12w23b.json",
            "time": "2012-06-07T00:00:00+00:00",
            "releaseTime": "2012-06-07T00:00:00+00:00"
        },
        {
            "id": "12w24a",
            "type": "snapshot",
            "url": "https://zkitefly.github.io/unlisted-versions-of-minecraft/files/12w24a/12w24a.json",
            "time": "2012-06-14T00:00:00+00:00",
            "releaseTime": "2012-06-14T00:00:00+00:00"
        },
        {
            "id": "12w25a",
            "type": "snapshot",
            "url": "https://zkitefly.github.io/unlisted-versions-of-minecraft/files/12w25a/12w25a.json",
            "time": "2012-06-21T00:00:00+00:00",
            "releaseTime": "2012-06-21T00:00:00+00:00"
        },
        {
            "id": "12w26a",
            "type": "snapshot",
            "url": "https://zkitefly.github.io/unlisted-versions-of-minecraft/files/12w26a/12w26a.json",
            "time": "2012-06-27T00:00:00+00:00",
            "releaseTime": "2012-06-27T00:00:00+00:00"
        },
        {
            "id": "12w27a",
            "type": "snapshot",
            "url": "https://zkitefly.github.io/unlisted-versions-of-minecraft/files/12w27a/12w27a.json",
            "time": "2012-07-05T00:00:00+00:00",
            "releaseTime": "2012-07-05T00:00:00+00:00"
        },
        {
            "id": "12w30a",
            "type": "snapshot",
            "url": "https://zkitefly.github.io/unlisted-versions-of-minecraft/files/12w30a/12w30a.json",
            "time": "2012-07-23T00:00:00+00:00",
            "releaseTime": "2012-07-23T00:00:00+00:00"
        },
        {
            "id": "12w30b",
            "type": "snapshot",
            "url": "https://zkitefly.github.io/unlisted-versions-of-minecraft/files/12w30b/12w30b.json",
            "time": "2012-07-23T00:00:00+00:00",
            "releaseTime": "2012-07-23T00:00:00+00:00"
        },
        {
            "id": "12w30c",
            "type": "snapshot",
            "url": "https://zkitefly.github.io/unlisted-versions-of-minecraft/files/12w30c/12w30c.json",
            "time": "2012-07-24T00:00:00+00:00",
            "releaseTime": "2012-07-24T00:00:00+00:00"
        },
        {
            "id": "12w30d",
            "type": "snapshot",
            "url": "https://zkitefly.github.io/unlisted-versions-of-minecraft/files/12w30d/12w30d.json",
            "time": "2012-07-25T00:00:00+00:00",
            "releaseTime": "2012-07-25T00:00:00+00:00"
        },
        {
            "id": "12w30e",
            "type": "snapshot",
            "url": "https://zkitefly.github.io/unlisted-versions-of-minecraft/files/12w30e/12w30e.json",
            "time": "2012-07-25T00:00:00+00:00",
            "releaseTime": "2012-07-25T00:00:00+00:00"
        },
        {
            "id": "12w32a",
            "type": "snapshot",
            "url": "https://zkitefly.github.io/unlisted-versions-of-minecraft/files/12w32a/12w32a.json",
            "time": "2012-08-09T00:00:00+00:00",
            "releaseTime": "2012-08-09T00:00:00+00:00"
        },
        {
            "id": "12w34a",
            "type": "snapshot",
            "url": "https://zkitefly.github.io/unlisted-versions-of-minecraft/files/12w34a/12w34a.json",
            "time": "2012-08-23T00:00:00+00:00",
            "releaseTime": "2012-08-23T00:00:00+00:00"
        },
        {
            "id": "12w34b",
            "type": "snapshot",
            "url": "https://zkitefly.github.io/unlisted-versions-of-minecraft/files/12w34b/12w34b.json",
            "time": "2012-08-24T00:00:00+00:00",
            "releaseTime": "2012-08-24T00:00:00+00:00"
        },
        {
            "id": "12w36a",
            "type": "snapshot",
            "url": "https://zkitefly.github.io/unlisted-versions-of-minecraft/files/12w36a/12w36a.json",
            "time": "2012-09-06T00:00:00+00:00",
            "releaseTime": "2012-09-06T00:00:00+00:00"
        },
        {
            "id": "12w37a",
            "type": "snapshot",
            "url": "https://zkitefly.github.io/unlisted-versions-of-minecraft/files/12w37a/12w37a.json",
            "time": "2012-09-13T00:00:00+00:00",
            "releaseTime": "2012-09-13T00:00:00+00:00"
        },
        {
            "id": "12w38a",
            "type": "snapshot",
            "url": "https://zkitefly.github.io/unlisted-versions-of-minecraft/files/12w38a/12w38a.json",
            "time": "2012-09-20T00:00:00+00:00",
            "releaseTime": "2012-09-20T00:00:00+00:00"
        },
        {
            "id": "12w38b",
            "type": "snapshot",
            "url": "https://zkitefly.github.io/unlisted-versions-of-minecraft/files/12w38b/12w38b.json",
            "time": "2012-09-21T00:00:00+00:00",
            "releaseTime": "2012-09-21T00:00:00+00:00"
        },
        {
            "id": "12w39a",
            "type": "snapshot",
            "url": "https://zkitefly.github.io/unlisted-versions-of-minecraft/files/12w39a/12w39a.json",
            "time": "2012-09-27T00:00:00+00:00",
            "releaseTime": "2012-09-27T00:00:00+00:00"
        },
        {
            "id": "12w39b",
            "type": "snapshot",
            "url": "https://zkitefly.github.io/unlisted-versions-of-minecraft/files/12w39b/12w39b.json",
            "time": "2012-09-28T00:00:00+00:00",
            "releaseTime": "2012-09-28T00:00:00+00:00"
        },
        {
            "id": "12w40a",
            "type": "snapshot",
            "url": "https://zkitefly.github.io/unlisted-versions-of-minecraft/files/12w40a/12w40a.json",
            "time": "2012-10-04T00:00:00+00:00",
            "releaseTime": "2012-10-04T00:00:00+00:00"
        },
        {
            "id": "12w40b",
            "type": "snapshot",
            "url": "https://zkitefly.github.io/unlisted-versions-of-minecraft/files/12w40b/12w40b.json",
            "time": "2012-10-05T00:00:00+00:00",
            "releaseTime": "2012-10-05T00:00:00+00:00"
        },
        {
            "id": "12w41a",
            "type": "snapshot",
            "url": "https://zkitefly.github.io/unlisted-versions-of-minecraft/files/12w41a/12w41a.json",
            "time": "2012-10-11T00:00:00+00:00",
            "releaseTime": "2012-10-11T00:00:00+00:00"
        },
        {
            "id": "12w41b",
            "type": "snapshot",
            "url": "https://zkitefly.github.io/unlisted-versions-of-minecraft/files/12w41b/12w41b.json",
            "time": "2012-10-12T00:00:00+00:00",
            "releaseTime": "2012-10-12T00:00:00+00:00"
        },
        {
            "id": "12w42a",
            "type": "snapshot",
            "url": "https://zkitefly.github.io/unlisted-versions-of-minecraft/files/12w42a/12w42a.json",
            "time": "2012-10-17T00:00:00+00:00",
            "releaseTime": "2012-10-17T00:00:00+00:00"
        },
        {
            "id": "12w42b",
            "type": "snapshot",
            "url": "https://zkitefly.github.io/unlisted-versions-of-minecraft/files/12w42b/12w42b.json",
            "time": "2012-10-18T00:00:00+00:00",
            "releaseTime": "2012-10-18T00:00:00+00:00"
        },
        {
            "id": "12w49a",
            "type": "snapshot",
            "url": "https://zkitefly.github.io/unlisted-versions-of-minecraft/files/12w49a/12w49a.json",
            "time": "2012-12-07T00:00:00+00:00",
            "releaseTime": "2012-12-07T00:00:00+00:00"
        },
        {
            "id": "12w50a",
            "type": "snapshot",
            "url": "https://zkitefly.github.io/unlisted-versions-of-minecraft/files/12w50a/12w50a.json",
            "time": "2012-12-13T00:00:00+00:00",
            "releaseTime": "2012-12-13T00:00:00+00:00"
        },
        {
            "id": "12w50b",
            "type": "snapshot",
            "url": "https://zkitefly.github.io/unlisted-versions-of-minecraft/files/12w50b/12w50b.json",
            "time": "2012-12-14T00:00:00+00:00",
            "releaseTime": "2012-12-14T00:00:00+00:00"
        },
        {
            "id": "13w01a",
            "type": "snapshot",
            "url": "https://zkitefly.github.io/unlisted-versions-of-minecraft/files/13w01a/13w01a.json",
            "time": "2013-01-03T00:00:00+00:00",
            "releaseTime": "2013-01-03T00:00:00+00:00"
        },
        {
            "id": "13w01b",
            "type": "snapshot",
            "url": "https://zkitefly.github.io/unlisted-versions-of-minecraft/files/13w01b/13w01b.json",
            "time": "2013-01-04T00:00:00+00:00",
            "releaseTime": "2013-01-04T00:00:00+00:00"
        },
        {
            "id": "13w02a",
            "type": "snapshot",
            "url": "https://zkitefly.github.io/unlisted-versions-of-minecraft/files/13w02a/13w02a.json",
            "time": "2013-01-10T00:00:00+00:00",
            "releaseTime": "2013-01-10T00:00:00+00:00"
        },
        {
            "id": "13w02b",
            "type": "snapshot",
            "url": "https://zkitefly.github.io/unlisted-versions-of-minecraft/files/13w02b/13w02b.json",
            "time": "2013-01-11T00:00:00+00:00",
            "releaseTime": "2013-01-11T00:00:00+00:00"
        },
        {
            "id": "13w03a",
            "type": "snapshot",
            "url": "https://zkitefly.github.io/unlisted-versions-of-minecraft/files/13w03a/13w03a.json",
            "time": "2013-01-17T00:00:00+00:00",
            "releaseTime": "2013-01-17T00:00:00+00:00"
        },
        {
            "id": "13w04a",
            "type": "snapshot",
            "url": "https://zkitefly.github.io/unlisted-versions-of-minecraft/files/13w04a/13w04a.json",
            "time": "2013-01-24T00:00:00+00:00",
            "releaseTime": "2013-01-24T00:00:00+00:00"
        },
        {
            "id": "13w05a",
            "type": "snapshot",
            "url": "https://zkitefly.github.io/unlisted-versions-of-minecraft/files/13w05a/13w05a.json",
            "time": "2013-01-31T00:00:00+00:00",
            "releaseTime": "2013-01-31T00:00:00+00:00"
        },
        {
            "id": "13w05b",
            "type": "snapshot",
            "url": "https://zkitefly.github.io/unlisted-versions-of-minecraft/files/13w05b/13w05b.json",
            "time": "2013-02-01T00:00:00+00:00",
            "releaseTime": "2013-02-01T00:00:00+00:00"
        },
        {
            "id": "13w06a",
            "type": "snapshot",
            "url": "https://zkitefly.github.io/unlisted-versions-of-minecraft/files/13w06a/13w06a.json",
            "time": "2013-02-07T00:00:00+00:00",
            "releaseTime": "2013-02-07T00:00:00+00:00"
        },
        {
            "id": "13w07a",
            "type": "snapshot",
            "url": "https://zkitefly.github.io/unlisted-versions-of-minecraft/files/13w07a/13w07a.json",
            "time": "2013-02-14T00:00:00+00:00",
            "releaseTime": "2013-02-14T00:00:00+00:00"
        },
        {
            "id": "13w09a",
            "type": "snapshot",
            "url": "https://zkitefly.github.io/unlisted-versions-of-minecraft/files/13w09a/13w09a.json",
            "time": "2013-02-26T00:00:00+00:00",
            "releaseTime": "2013-02-26T00:00:00+00:00"
        },
        {
            "id": "13w09b",
            "type": "snapshot",
            "url": "https://zkitefly.github.io/unlisted-versions-of-minecraft/files/13w09b/13w09b.json",
            "time": "2013-02-27T00:00:00+00:00",
            "releaseTime": "2013-02-27T00:00:00+00:00"
        },
        {
            "id": "13w09c",
            "type": "snapshot",
            "url": "https://zkitefly.github.io/unlisted-versions-of-minecraft/files/13w09c/13w09c.json",
            "time": "2013-03-01T00:00:00+00:00",
            "releaseTime": "2013-03-01T00:00:00+00:00"
        },
        {
            "id": "13w10a",
            "type": "snapshot",
            "url": "https://zkitefly.github.io/unlisted-versions-of-minecraft/files/13w10a/13w10a.json",
            "time": "2013-03-04T00:00:00+00:00",
            "releaseTime": "2013-03-04T00:00:00+00:00"
        },
        {
            "id": "13w10b",
            "type": "snapshot",
            "url": "https://zkitefly.github.io/unlisted-versions-of-minecraft/files/13w10b/13w10b.json",
            "time": "2013-03-06T00:00:00+00:00",
            "releaseTime": "2013-03-06T00:00:00+00:00"
        },
        {
            "id": "13w11a",
            "type": "snapshot",
            "url": "https://zkitefly.github.io/unlisted-versions-of-minecraft/files/13w11a/13w11a.json",
            "time": "2013-02-14T00:00:00+00:00",
            "releaseTime": "2013-02-14T00:00:00+00:00"
        },
        {
            "id": "13w12~",
            "type": "snapshot",
            "url": "https://zkitefly.github.io/unlisted-versions-of-minecraft/files/13w12-/13w12-.json",
            "time": "2013-03-19T00:00:00+00:00",
            "releaseTime": "2013-03-19T00:00:00+00:00"
        },
        {
            "id": "b1.8-pre1-2",
            "type": "old_beta",
            "url": "https://zkitefly.github.io/unlisted-versions-of-minecraft/files/b1_8-pre1/b1_8-pre1.json",
            "time": "2011-09-09T00:00:00+00:00",
            "releaseTime": "2011-09-09T00:00:00+00:00"
        },
        {
            "id": "b1.8-pre2",
            "type": "old_beta",
            "url": "https://zkitefly.github.io/unlisted-versions-of-minecraft/files/b1_8-pre2/b1_8-pre2.json",
            "time": "2011-09-13T00:00:00+00:00",
            "releaseTime": "2011-09-13T00:00:00+00:00"
        },
        {
            "id": "b1.9-pre1",
            "type": "snapshot",
            "url": "https://zkitefly.github.io/unlisted-versions-of-minecraft/files/b1_9-pre1/b1_9-pre1.json",
            "time": "2011-09-22T00:00:00+00:00",
            "releaseTime": "2011-09-22T00:00:00+00:00"
        },
        {
            "id": "b1.9-pre2",
            "type": "snapshot",
            "url": "https://zkitefly.github.io/unlisted-versions-of-minecraft/files/b1_9-pre2/b1_9-pre2.json",
            "time": "2011-09-29T00:00:00+00:00",
            "releaseTime": "2011-09-29T00:00:00+00:00"
        },
        {
            "id": "b1.9-pre3",
            "type": "snapshot",
            "url": "https://zkitefly.github.io/unlisted-versions-of-minecraft/files/b1_9-pre3/b1_9-pre3.json",
            "time": "2011-10-06T00:00:00+00:00",
            "releaseTime": "2011-10-06T00:00:00+00:00"
        },
        {
            "id": "b1.9-pre4",
            "type": "snapshot",
            "url": "https://zkitefly.github.io/unlisted-versions-of-minecraft/files/b1_9-pre4/b1_9-pre4.json",
            "time": "2011-10-13T00:00:00+00:00",
            "releaseTime": "2011-10-13T00:00:00+00:00"
        },
        {
            "id": "b1.9-pre5",
            "type": "snapshot",
            "url": "https://zkitefly.github.io/unlisted-versions-of-minecraft/files/b1_9-pre5/b1_9-pre5.json",
            "time": "2011-10-27T00:00:00+00:00",
            "releaseTime": "2011-10-27T00:00:00+00:00"
        },
        {
            "id": "b1.9-pre6",
            "type": "snapshot",
            "url": "https://zkitefly.github.io/unlisted-versions-of-minecraft/files/b1_9-pre6/b1_9-pre6.json",
            "time": "2011-11-11T00:00:00+00:00",
            "releaseTime": "2011-11-11T00:00:00+00:00"
        },
        {
            "id": "2point0_blue",
            "type": "release",
            "url": "https://zkitefly.github.io/unlisted-versions-of-minecraft/files/2point0_blue/2point0_blue.json",
            "time": "2013-08-06T06:00:00-05:00",
            "releaseTime": "2013-03-20T05:00:00-05:00"
        },
        {
            "id": "2point0_red",
            "type": "release",
            "url": "https://zkitefly.github.io/unlisted-versions-of-minecraft/files/2point0_red/2point0_red.json",
            "time": "2013-08-06T06:00:00-05:00",
            "releaseTime": "2013-03-20T05:00:00-05:00"
        },
        {
            "id": "2point0_purple",
            "type": "release",
            "url": "https://zkitefly.github.io/unlisted-versions-of-minecraft/files/2point0_purple/2point0_purple.json",
            "time": "2013-08-06T06:00:00-05:00",
            "releaseTime": "2013-03-20T05:00:00-05:00"
        },
        {
            "id": "1_19_deep_dark_experimental_snapshot-1",
            "type": "pending",
            "url": "https://zkitefly.github.io/unlisted-versions-of-minecraft/files/1_19_deep_dark_experimental_snapshot-1/1_19_deep_dark_experimental_snapshot-1.json",
            "time": "2022-02-17T13:55:59+00:00",
            "releaseTime": "2022-02-17T13:55:59+00:00"
        },
        {
            "id": "1_18_experimental-snapshot-7",
            "type": "pending",
            "url": "https://zkitefly.github.io/unlisted-versions-of-minecraft/files/1_18_experimental-snapshot-7/1_18_experimental-snapshot-7.json",
            "time": "2021-09-08T12:33:23+00:00",
            "releaseTime": "2021-09-08T12:33:23+00:00"
        },
        {
            "id": "1_18_experimental-snapshot-6",
            "type": "pending",
            "url": "https://zkitefly.github.io/unlisted-versions-of-minecraft/files/1_18_experimental-snapshot-6/1_18_experimental-snapshot-6.json",
            "time": "2021-09-01T12:53:14+00:00",
            "releaseTime": "2021-09-01T12:53:14+00:00"
        },
        {
            "id": "1_18_experimental-snapshot-5",
            "type": "pending",
            "url": "https://zkitefly.github.io/unlisted-versions-of-minecraft/files/1_18_experimental-snapshot-5/1_18_experimental-snapshot-5.json",
            "time": "2021-08-25T14:41:57+00:00",
            "releaseTime": "2021-08-25T14:41:57+00:00"
        },
        {
            "id": "1_18_experimental-snapshot-4",
            "type": "pending",
            "url": "https://zkitefly.github.io/unlisted-versions-of-minecraft/files/1_18_experimental-snapshot-4/1_18_experimental-snapshot-4.json",
            "time": "2021-08-17T16:10:25+00:00",
            "releaseTime": "2021-08-17T16:10:25+00:00"
        },
        {
            "id": "1_18_experimental-snapshot-3",
            "type": "pending",
            "url": "https://zkitefly.github.io/unlisted-versions-of-minecraft/files/1_18_experimental-snapshot-3/1_18_experimental-snapshot-3.json",
            "time": "2021-08-10T12:42:45+00:00",
            "releaseTime": "2021-08-10T12:42:45+00:00"
        },
        {
            "id": "1_18_experimental-snapshot-2",
            "type": "pending",
            "url": "https://zkitefly.github.io/unlisted-versions-of-minecraft/files/1_18_experimental-snapshot-2/1_18_experimental-snapshot-2.json",
            "time": "2021-07-20T13:35:08+00:00",
            "releaseTime": "2021-07-20T13:35:08+00:00"
        },
        {
            "id": "1_18_experimental-snapshot-1",
            "type": "pending",
            "url": "https://zkitefly.github.io/unlisted-versions-of-minecraft/files/1_18_experimental-snapshot-1/1_18_experimental-snapshot-1.json",
            "time": "2021-07-13T12:54:19+00:00",
            "releaseTime": "2021-07-13T12:54:19+00:00"
        },
        {
            "id": "1_16_combat-6",
            "type": "pending",
            "url": "https://zkitefly.github.io/unlisted-versions-of-minecraft/files/1_16_combat-6/1_16_combat-6.json",
            "time": "2020-08-26T06:24:28+00:00",
            "releaseTime": "2020-08-26T06:24:28+00:00"
        },
        {
            "id": "1_16_combat-5",
            "type": "pending",
            "url": "https://zkitefly.github.io/unlisted-versions-of-minecraft/files/1_16_combat-5/1_16_combat-5.json",
            "time": "2020-08-21T09:23:13+00:00",
            "releaseTime": "2020-08-21T09:23:13+00:00"
        },
        {
            "id": "1_16_combat-4",
            "type": "pending",
            "url": "https://zkitefly.github.io/unlisted-versions-of-minecraft/files/1_16_combat-4/1_16_combat-4.json",
            "time": "2020-08-19T11:14:58+00:00",
            "releaseTime": "2020-08-19T11:14:58+00:00"
        },
        {
            "id": "1_16_combat-3",
            "type": "pending",
            "url": "https://zkitefly.github.io/unlisted-versions-of-minecraft/files/1_16_combat-3/1_16_combat-3.json",
            "time": "2020-08-14T09:02:15+00:00",
            "releaseTime": "2020-08-14T09:02:15+00:00"
        },
        {
            "id": "1_16_combat-2",
            "type": "pending",
            "url": "https://zkitefly.github.io/unlisted-versions-of-minecraft/files/1_16_combat-2/1_16_combat-2.json",
            "time": "2020-08-13T11:56:30+00:00",
            "releaseTime": "2020-08-13T11:56:30+00:00"
        },
        {
            "id": "1_16_combat-1",
            "type": "pending",
            "url": "https://zkitefly.github.io/unlisted-versions-of-minecraft/files/1_16_combat-1/1_16_combat-1.json",
            "time": "2020-08-12T14:07:25+00:00",
            "releaseTime": "2020-08-12T14:07:25+00:00"
        },
        {
            "id": "1_16_combat-0",
            "type": "pending",
            "url": "https://zkitefly.github.io/unlisted-versions-of-minecraft/files/1_16_combat-0/1_16_combat-0.json",
            "time": "2020-08-07T10:44:47+00:00",
            "releaseTime": "2020-08-07T10:44:47+00:00"
        },
        {
            "id": "1_15_combat-6",
            "type": "pending",
            "url": "https://zkitefly.github.io/unlisted-versions-of-minecraft/files/1_15_combat-6/1_15_combat-6.json",
            "time": "2020-01-15T09:46:35+00:00",
            "releaseTime": "2020-01-15T09:46:35+00:00"
        },
        {
            "id": "1_15_combat-1",
            "type": "pending",
            "url": "https://zkitefly.github.io/unlisted-versions-of-minecraft/files/1_15_combat-1/1_15_combat-1.json",
            "time": "2019-11-29T15:41:39+00:00",
            "releaseTime": "2019-11-29T15:41:39+00:00"
        },
        {
            "id": "1_14_combat-3",
            "type": "pending",
            "url": "https://zkitefly.github.io/unlisted-versions-of-minecraft/files/1_14_combat-3/1_14_combat-3.json",
            "time": "2019-10-31T14:31:38+00:00",
            "releaseTime": "2019-10-31T14:31:38+00:00"
        },
        {
            "id": "1_14_combat-0",
            "type": "pending",
            "url": "https://zkitefly.github.io/unlisted-versions-of-minecraft/files/1_14_combat-0/1_14_combat-0.json",
            "time": "2019-08-13T07:33:42+00:00",
            "releaseTime": "2019-08-13T07:33:42+00:00"
        },
        {
            "id": "1_14_combat-212796",
            "type": "pending",
            "url": "https://zkitefly.github.io/unlisted-versions-of-minecraft/files/1_14_combat-212796/1_14_combat-212796.json",
            "time": "2019-06-20T13:23:44+00:00",
            "releaseTime": "2019-06-20T13:23:44+00:00"
        }
    ]
}